{
    "agsProject": {
        "projectName": "Test to Alp",
        "producer": "Arup",
        "client": "Arup",
        "description": "Example AGSi dataset for scripting import to Oasys Alp",
        "projectCountry": "United Kingdom",
        "agsProjectCoordinateSystem": [
            {
                "systemID": "TypicalSectionElevation",
                "description": "Typical section elevation",
                "systemType": "XY",
                "systemNameXY": "Typical section",
                "axisNameX": "Distance",
                "axisNameY": "Elevation",
                "axisUnitsXY": "m",
                "axisUnitsZ": " "
            }
        ],
        "agsProjectCodeSet": [
            {
                "description": "Parameter codes",
                "codeSetID": "CodeSetParameter-published",
                "usedByObject": "agsiDataParameterValue",
                "usedByAttribute": "codeID",
                "sourceDescription": "AGSi standard code list",
                "agsProjectCode": [
                    {
                        "codeID": "UnitWeightBulk",
                        "description": "Bulk unit weight",
                        "units": "kN/m3",
                        "isStandard": true
                    },
                    {
                        "codeID": "YoungsModulusDrained",
                        "description": "Drained Young's Modulus",
                        "units": "kPa",
                        "isStandard": true
                    },
                    {
                        "codeID": "AngleFrictionPeak",
                        "description": "Peak effective angle of shearing resistance",
                        "units": "deg",
                        "isStandard": true
                    },
                    {
                        "codeID": "Cohesion",
                        "description": "Effective cohesion",
                        "units": "kPa",
                        "isStandard": true
                    },
                    {
                        "codeID": "UnitWeightWater",
                        "description": "Unit weight water",
                        "units": "kN/m3",
                        "isStandard": true
                    },
                    {
                        "codeID": "WaterPressure",
                        "description": "Water pressure",
                        "units": "kN/m2",
                        "isStandard": true
                    }
                ]
            },
            {
                "description": "Parameter case",
                "codeSetID": "CaseSetParameter",
                "usedByObject": "agsiDataParameterValue",
                "usedByAttribute": "caseID",
                "agsProjectCode": [
                    {
                        "codeID": "Pile design",
                        "description": "Pile design"
                    }
                ]
            }
        ]
    },
    "agsSchema": {
        "name": "AGSi",
        "version": "0.6.1",
        "link": "https://ags-data-format-wg.gitlab.io/AGSi_Documentation/"
    },
    "agsFile": {
        "title": "Test to Alp",
        "projectTitle": "Arup",
        "description": "Example AGSi design model dataset for Alp",
        "producedBy": "Arup",
        "fileURI": "",
        "revision": "P01.1",
        "suitabilityType": "For Information",
        "status": "S3",
        "madeBy": "David Farmer",
        "checkedBy": "TBC",
        "approvedBy": "TBC"
    },
    "agsiModel": [
        {
            "modelID": "P001",
            "modelName": "Pile 1 design ground model",
            "description": "Pile 1 design ground model",
            "coordSystemID": "TypicalSectionElevation",
            "modelType": "Geotechnical design model",
            "category": "Analytical",
            "domain": "Geotechnical",
            "input": "",
            "method": "",
            "usage": "Design ground model for use in Oasys Alp software",
            "uncertainty": "",
            "remarks": "",
            "agsiModelElement": [
                {
                    "elementID": "Material 1",
                    "elementName": "Material 1",
                    "description": "Material 1",
                    "elementType": "Geotechnical unit",
                    "geometryObject": "agsiGeometryLayer",
                    "agsiDataParameterValue": [
                        {
                            "codeID": "UnitWeightBulk",
                            "caseID": "Pile design",
                            "valueNumeric": 20.0
                        },
                        {
                            "codeID": "UnitWeightBulk",
                            "caseID": "Pile design 2",
                            "valueNumeric": 20.5
                        },
                        {
                            "codeID": "YoungsModulusDrained",
                            "caseID": "Pile design",
                            "valueNumeric": 11250
                        },
                        {
                            "codeID": "YoungsModulusDrained",
                            "caseID": "Pile design 2",
                            "valueNumeric": 12250
                        },
                        {
                            "codeID": "AngleFrictionPeak",
                            "caseID": "Pile design",
                            "valueNumeric": 24
                        },
                        {
                            "codeID": "AngleFrictionPeak",
                            "caseID": "Pile design 2",
                            "valueNumeric": 25
                        },
                        {
                            "codeID": "Cohesion",
                            "caseID": "Pile design",
                            "valueNumeric": 0
                        },
                        {
                            "codeID": "Cohesion",
                            "caseID": "Pile design 2",
                            "valueNumeric": 0
                        }
                    ],
                    "agsiGeometry": {
                        "topElevation": 4.8,
                        "bottomElevation": 0.5
                    }
                },
                {
                    "elementID": "Material 2",
                    "elementName": "Material 2",
                    "description": "Material 2",
                    "elementType": "Geotechnical unit",
                    "geometryObject": "agsiGeometryLayer",
                    "agsiDataParameterValue": [
                        {
                            "codeID": "UnitWeightBulk",
                            "caseID": "Pile design",
                            "valueNumeric": 18.0
                        },
                        {
                            "codeID": "YoungsModulusDrained",
                            "caseID": "Pile design",
                            "valueNumeric": 6000
                        },
                        {
                            "codeID": "AngleFrictionPeak",
                            "caseID": "Pile design",
                            "valueNumeric": 18
                        },
                        {
                            "codeID": "Cohesion",
                            "caseID": "Pile design",
                            "valueNumeric": 0
                          }
                    ],
                    "agsiGeometry": {
                        "topElevation": 0.5,
                        "bottomElevation": -1.5
                    }
                },
                {
                    "elementID": "Material 3",
                    "elementName": "Material 3",
                    "description": "Material 3",
                    "elementType": "Geotechnical unit",
                    "geometryObject": "agsiGeometryLayer",
                    "agsiDataParameterValue": [
                        {
                            "codeID": "UnitWeightBulk",
                            "caseID": "Pile design",
                            "valueNumeric": 20.0
                        },
                        {
                            "codeID": "YoungsModulusDrained",
                            "caseID": "Pile design",
                            "valueNumeric": 40000
                        },
                        {
                            "codeID": "AngleFrictionPeak",
                            "caseID": "Pile design",
                            "valueNumeric": 36
                        },
                        {
                            "codeID": "Cohesion",
                            "caseID": "Pile design",
                            "valueNumeric": 0
                        }
                    ],
                    "agsiGeometry": {
                        "topElevation": -1.5
                    }
                },
                {
                    "elementID": "Material 4",
                    "elementName": "Material 4",
                    "description": "Material 4",
                    "elementType": "Geotechnical unit",
                    "geometryObject": "agsiGeometryLayer",
                    "agsiDataParameterValue": [
                        {
                            "codeID": "UnitWeightBulk",
                            "caseID": "Pile design",
                            "valueNumeric": 20.0
                        },
                        {
                            "codeID": "YoungsModulusDrained",
                            "caseID": "Pile design",
                            "valueNumeric": 51000
                        },
                        {
                            "codeID": "AngleFrictionPeak",
                            "caseID": "Pile design",
                            "valueNumeric": 22
                        },
                        {
                            "codeID": "Cohesion",
                            "caseID": "Pile design",
							"valueProfileIndVarCodeID":"Elevation",
                            "valueProfile": [
                                [
                                    [-7,72],
									[-5,81.8]
                                ]
                            ]
                        }
                    ],
                    "agsiGeometry": {
                        "topElevation": -7.0
                    }
                },
                {
                    "elementID": "GWL1",
                    "elementName": "Design groundwater level",
                    "description": "Design groundwater level",
                    "elementType": "Groundwater",
                    "geometryObject": "agsiGeometryPlane",
                    "agsiDataParameterValue": [
                        {
                            "codeID": "UnitWeightWater",
                            "caseID": "Pile design",
                            "valueNumeric": 10.0
                        },
                        {
                            "codeID": "WaterPressure",
                            "caseID": "Pile design",
                            "valueNumeric": 0
                        }
                    ],
                    "agsiGeometry": {
                        "description": "design groundwater level",
                        "elevation": 1.2
                    }
                },
                {
                    "elementID": "GWL2",
                    "elementName": "Design groundwater level2",
                    "description": "Design groundwater level2",
                    "elementType": "Groundwater",
                    "geometryObject": "agsiGeometryPlane",
                    "agsiDataParameterValue": [
                        {
                            "codeID": "UnitWeightWater",
                            "caseID": "Pile design",
                            "valueNumeric": 10.0
                        },
                        {
                            "codeID": "WaterPressure",
                            "caseID": "Pile design",
                            "valueNumeric": 150
                        }
                    ],
                    "agsiGeometry": {
                        "description": "design groundwater level",
                        "elevation": 0.8
                    }
                }
            ],

            "agsiModelAlignment": []
        }
    ]
}